…
```r
library(tidyverse)
```

### Explore data  


```r
# scooby_raw <- read_csv("https://raw.githubusercontent.com/rfordatascience/tidytuesday/master/data/2021/2021-07-13/scoobydoo.csv")
# saveRDS(scooby_raw, "./data/scooby_raw.rds")
scooby_raw = readRDS("./data/scooby_raw.rds")
scooby_raw
#> # A tibble: 603 × 75
#>    index series_name  network season title  imdb  engagement
#>    <dbl> <chr>        <chr>   <chr>  <chr>  <chr> <chr>     
#>  1     1 Scooby Doo,… CBS     1      What … 8.1   556       
#>  2     2 Scooby Doo,… CBS     1      A Clu… 8.1   479       
#>  3     3 Scooby Doo,… CBS     1      Hassl… 8     455       
#>  4     4 Scooby Doo,… CBS     1      Mine … 7.8   426       
#>  5     5 Scooby Doo,… CBS     1      Decoy… 7.5   391       
#>  6     6 Scooby Doo,… CBS     1      What … 8.4   384       
#>  7     7 Scooby Doo,… CBS     1      Never… 7.6   358       
#>  8     8 Scooby Doo,… CBS     1      Foul … 8.2   358       
#>  9     9 Scooby Doo,… CBS     1      The B… 8.1   371       
#> 10    10 Scooby Doo,… CBS     1      Bedla… 8     346       
#> # … with 593 more rows, and 68 more variables:
#> #   date_aired <date>, run_time <dbl>, format <chr>,
#> #   monster_name <chr>, monster_gender <chr>,
#> #   monster_type <chr>, monster_subtype <chr>,
#> #   monster_species <chr>, monster_real <chr>,
#> #   monster_amount <dbl>, caught_fred <chr>,
#> #   caught_daphnie <chr>, caught_velma <chr>, …
```
…
    imdb = parse_number(imdb),
    # 第一集是1969，所以乾脆算他1970年代比較好處理
    year_aired = 10 * ((lubridate::year(date_aired) + 1) %/% 10),
    # 把 T
    monster_real = case_when(
      monster_real == "FALSE" ~ "fake",
      monster_real == "TRUE" ~ "real"
    ),
    monster_real = factor(monster_real)
  ) %>%
  # 不見得每一集都有 monster，所以只篩有 monster 的集數
  filter(monster_amount > 0, !is.na(imdb)) %>%
  select(monster_real, imdb, year_aired)
scooby
#> # A tibble: 501 × 3
#>    monster_real  imdb year_aired
#>    <fct>        <dbl>      <dbl>
#>  1 fake           8.1       1970
#>  2 fake           8.1       1970
#>  3 fake           8         1970
#>  4 fake           7.8       1970
#>  5 fake           7.5       1970
#>  6 fake           8.4       1970
#>  7 fake           7.6       1970
#>  8 fake           8.2       1970
#>  9 fake           8.1       1970
#> 10 fake           8         1970
#> # … with 491 more rows
```
…
```r
library(rsample)
set.seed(1234)
scooby_split <- initial_split(scooby, strata = monster_real)
scooby_train <- training(scooby_split)
scooby_test <- testing(scooby_split)

# 資料太少，不用 cv ，改用 bootstrap
set.seed(1234)
scooby_folds <- bootstraps(scooby_train, strata = monster_real)
scooby_folds
#> # Bootstrap sampling using stratification 
#> # A tibble: 25 × 2
#>    splits            id         
#>    <list>            <chr>      
#>  1 <split [375/139]> Bootstrap01
#>  2 <split [375/144]> Bootstrap02
#>  3 <split [375/142]> Bootstrap03
#>  4 <split [375/136]> Bootstrap04
#>  5 <split [375/138]> Bootstrap05
#>  6 <split [375/124]> Bootstrap06
#>  7 <split [375/138]> Bootstrap07
#>  8 <split [375/138]> Bootstrap08
#>  9 <split [375/136]> Bootstrap09
#> 10 <split [375/134]> Bootstrap10
#> # … with 15 more rows
```
…
```r
hyper_param_meta %>%
  pull_dials_object("min_n")
#> Minimal Node Size (quantitative)
#> Range: [2, 40]
```

* 我想用 latin_hypercube，幫他在 feature space 中均勻撒 50 個點  


```r
set.seed(17)
my_grid = grid_latin_hypercube(hyper_param_meta, size = 50)
my_grid
#> # A tibble: 50 × 3
#>    cost_complexity tree_depth min_n
#>              <dbl>      <int> <int>
#>  1   0.00000000301          9     5
#>  2   0.0906                 2    18
#>  3   0.00000431             6     8
#>  4   0.00340               14     7
#>  5   0.000116               2     4
#>  6   0.0000190             11    14
#>  7   0.0496                 3    16
#>  8   0.0000000422          10    16
#>  9   0.0000000215          12    13
#> 10   0.000277              12    19
#> # … with 40 more rows
```
…
