Chapter 3 glmnet | ML Cookbook
…
#     values_fill = list(person_value = 0)
#   )
# 
# office <- office_info %>%
#   distinct(season, episode, episode_name) %>%
#   inner_join(characters) %>%
#   inner_join(creators) %>%
#   inner_join(office_ratings %>%
#     select(episode_name, imdb_rating)) %>%
#   janitor::clean_names()
# 
# saveRDS(office, "model_example/glmnet/office.rds")
office = readRDS("./data/office.rds")
office
#> # A tibble: 136 × 32
#>    season episode episode_name     andy angela darryl dwight
#>     <dbl>   <dbl> <chr>           <int>  <int>  <int>  <int>
#>  1      1       1 pilot               0      1      0     29
#>  2      1       2 diversity day       0      4      0     17
#>  3      1       3 health care         0      5      0     62
#>  4      1       5 basketball          0      3     15     25
#>  5      1       6 hot girl            0      3      0     28
#>  6      2       1 dundies             0      1      1     32
#>  7      2       2 sexual harassm…     0      2      9     11
#>  8      2       3 office olympics     0      6      0     55
#>  9      2       4 fire                0     17      0     65
#> 10      2       5 halloween           0     13      0     33
#> # … with 126 more rows, and 25 more variables: jim <int>,
#> #   kelly <int>, kevin <int>, michael <int>, oscar <int>,
#> #   pam <int>, phyllis <int>, ryan <int>, toby <int>,
#> #   erin <int>, jan <int>, ken_kwapis <dbl>,
#> #   greg_daniels <dbl>, b_j_novak <dbl>,
#> #   paul_lieberstein <dbl>, mindy_kaling <dbl>,
#> #   paul_feig <dbl>, gene_stupnitsky <dbl>, …
…
我們可以這樣看到他的 range，是在 log10 的尺度下，從 -10 到 0

hyper_param_meta %>%
  pull_dials_object("penalty")
#> Amount of Regularization (quantitative)
#> Transformer:  log-10 
#> Range (transformed scale): [-10, 0]

我想用 latin_hypercube，幫他在 feature space 中均勻撒 50 個點

my_grid = grid_latin_hypercube(hyper_param_meta, size = 50)
my_grid %>%
  arrange(penalty)
#> # A tibble: 50 × 1
#>     penalty
#>       <dbl>
#>  1 1.12e-10
#>  2 2.20e-10
#>  3 3.64e-10
#>  4 4.34e-10
#>  5 7.01e-10
#>  6 1.42e- 9
#>  7 1.98e- 9
#>  8 3.41e- 9
#>  9 4.02e- 9
#> 10 9.39e- 9
#> # … with 40 more rows
…
final_lasso_wf = lasso_wf %>% finalize_workflow(final_param) # finalized workflow
final_lasso_fit <- final_lasso_wf %>% fit(office_train) # finalized model

3.2.3 Prediction

對測試集做預測

# 對測試集做預測
office_test_res <- bind_cols(
  stats::predict(final_lasso_fit, office_test), # 預測值
  office_test %>% select(imdb_rating) # 真值
)
office_test_res
#> # A tibble: 36 × 2
#>    .pred imdb_rating
#>    <dbl>       <dbl>
#>  1  8.56         7.6
#>  2  8.80         8.2
#>  3  8.33         8.2
#>  4  8.67         8.2
#>  5  8.39         7.9
#>  6  8.46         8.2
#>  7  8.41         8.3
#>  8  8.26         8  
#>  9  8.00         8.2
#> 10  8.31         8.5
#> # … with 26 more rows
…
3.2.5.1 變數重要性

先來看一下我們 fit 出的 model:

# parsnip model
parsnip_model = final_lasso_fit %>%
  fit(office_train) %>%
  pull_workflow_fit()

coef_df = parsnip_model %>%
  tidy() %>%
  arrange(desc(abs(estimate)))

coef_df
#> # A tibble: 31 × 3
#>    term            estimate penalty
#>    <chr>              <dbl>   <dbl>
#>  1 (Intercept)       8.37    0.0481
#>  2 michael           0.162   0.0481
#>  3 greg_daniels      0.101   0.0481
#>  4 episode           0.0613  0.0481
#>  5 kelly            -0.0420  0.0481
#>  6 jim               0.0410  0.0481
#>  7 jan               0.0406  0.0481
#>  8 angela            0.0387  0.0481
#>  9 paul_feig         0.0332  0.0481
#> 10 randall_einhorn  -0.0277  0.0481
#> # … with 21 more rows

可以看到，最重要的是michael，再來是greg_daniels, 依此類推

通常在處理變數重要性時，都會用 vip 這個 package，因為他還有很多額外功能。

library(vip)
parsnip_model %>%
  vip::vi(lambda = final_param$penalty)
#> # A tibble: 30 × 3
#>    Variable         Importance Sign 
#>    <chr>                 <dbl> <chr>
#>  1 michael              0.162  POS  
#>  2 greg_daniels         0.101  POS  
#>  3 episode              0.0613 POS  
#>  4 kelly                0.0420 NEG  
#>  5 jim                  0.0410 POS  
#>  6 jan                  0.0406 POS  
#>  7 angela               0.0387 POS  
#>  8 paul_feig            0.0332 POS  
#>  9 randall_einhorn      0.0277 NEG  
#> 10 paul_lieberstein     0.0119 POS  
#> # … with 20 more rows
…
如果要做統計推論(哪些變數顯著)，

3.2.6.1 模型細節

如果你想看 glmnet 的模型細節，可以先取出原生 package 的物件：

# 原生 package 的物件
glmnet_model = parsnip_model$fit

3.2.6.1.1 法一：用 broom 幫忙 summarise (推薦)

glmnet_model %>%
  broom::tidy(return_zeros = FALSE)
#> # A tibble: 1,550 × 5
#>    term         step estimate lambda dev.ratio
#>    <chr>       <dbl>    <dbl>  <dbl>     <dbl>
#>  1 (Intercept)     1     8.37  0.242    0     
#>  2 (Intercept)     2     8.37  0.220    0.0357
#>  3 (Intercept)     3     8.37  0.201    0.0654
#>  4 (Intercept)     4     8.37  0.183    0.0900
#>  5 (Intercept)     5     8.37  0.167    0.110 
#>  6 (Intercept)     6     8.37  0.152    0.136 
#>  7 (Intercept)     7     8.37  0.138    0.162 
#>  8 (Intercept)     8     8.37  0.126    0.183 
#>  9 (Intercept)     9     8.37  0.115    0.201 
#> 10 (Intercept)    10     8.37  0.105    0.223 
#> # … with 1,540 more rows
…
然後，自己轉成畫圖用資料：

df_for_plot = glmnet_model$beta %>%
  as.matrix() %>%
  as.data.frame() %>%
  rownames_to_column("variable") %>%
  pivot_longer(cols = -variable, names_to = "lambda_index", values_to = "coef") %>%
  left_join(lambda_mapping, by = "lambda_index") %>%
  group_by(variable) %>%
  arrange(lambda) %>%
  mutate(lambda_index = 1:n()) %>%
  ungroup()
df_for_plot
#> # A tibble: 2,280 × 4
#>    variable lambda_index    coef   lambda
#>    <chr>           <int>   <dbl>    <dbl>
#>  1 season              1 -0.0456 0.000225
#>  2 episode             1  0.133  0.000225
#>  3 andy                1  0.0319 0.000225
#>  4 angela              1  0.0734 0.000225
#>  5 darryl              1  0.0745 0.000225
#>  6 dwight              1 -0.0168 0.000225
#>  7 jim                 1  0.108  0.000225
#>  8 kelly               1 -0.128  0.000225
#>  9 kevin               1 -0.0471 0.000225
#> 10 michael             1  0.186  0.000225
#> # … with 2,270 more rows
…
