Chapter 1 Recipes | ML Cookbook
…
可以看到Operations裡面，寫了Centering and scaling for all_numeric()

接下來，我要prepare我的資料了。我在prep裡面，放入iris_train。那normalize的mean和sd，就都會根據iris_train來計算出來

iris_rec_prep <- iris_recipe %>% 
  prep(training = iris_train)

最後，應用到testing set

iris_rec_prep %>%
  bake(new_data = iris_test)
#> # A tibble: 39 × 5
#>    Sepal.Length Sepal.Width Petal.Length Petal.Width Species
#>           <dbl>       <dbl>        <dbl>       <dbl> <fct>  
#>  1       -0.886      1.11          -1.33       -1.30 setosa 
#>  2       -1.12      -0.0744        -1.33       -1.30 setosa 
#>  3       -0.534      2.05          -1.17       -1.04 setosa 
#>  4       -0.182      3.23          -1.28       -1.04 setosa 
#>  5       -0.886      1.58          -1.28       -1.04 setosa 
#>  6       -1.47       1.34          -1.56       -1.30 setosa 
#>  7       -0.417      2.76          -1.33       -1.30 setosa 
#>  8       -1.12       0.162         -1.28       -1.30 setosa 
#>  9       -1.12       1.34          -1.33       -1.43 setosa 
#> 10       -1.71      -0.0744        -1.39       -1.30 setosa 
#> # … with 29 more rows
…
這個變數的type

這個變數的role

所以，我在選擇變數的時候，我就可以善用這三個特徵來選變數

1.3.1 用名字選變數

舉例來說，我的step_dummy，想做在 species 上，那我可以寫：

recipe(Species ~ ., data = iris) %>%
  step_dummy(Species) %>%
  prep() %>%
  juice()
#> # A tibble: 150 × 6
#>    Sepal.Length Sepal.Width Petal.Length Petal.Width
#>           <dbl>       <dbl>        <dbl>       <dbl>
#>  1          5.1         3.5          1.4         0.2
#>  2          4.9         3            1.4         0.2
#>  3          4.7         3.2          1.3         0.2
#>  4          4.6         3.1          1.5         0.2
#>  5          5           3.6          1.4         0.2
#>  6          5.4         3.9          1.7         0.4
#>  7          4.6         3.4          1.4         0.3
#>  8          5           3.4          1.5         0.2
#>  9          4.4         2.9          1.4         0.2
#> 10          4.9         3.1          1.5         0.1
#> # … with 140 more rows, and 2 more variables:
#> #   Species_versicolor <dbl>, Species_virginica <dbl>

我也可以用dplyr的starts_with(), end_with(),…來選變數。例如：

recipe(Species ~ ., data = iris) %>%
  step_normalize(starts_with("Sepal")) %>%
  prep() %>%
  juice()
#> # A tibble: 150 × 5
#>    Sepal.Length Sepal.Width Petal.Length Petal.Width Species
#>           <dbl>       <dbl>        <dbl>       <dbl> <fct>  
#>  1       -0.898      1.02            1.4         0.2 setosa 
#>  2       -1.14      -0.132           1.4         0.2 setosa 
#>  3       -1.38       0.327           1.3         0.2 setosa 
#>  4       -1.50       0.0979          1.5         0.2 setosa 
#>  5       -1.02       1.25            1.4         0.2 setosa 
#>  6       -0.535      1.93            1.7         0.4 setosa 
#>  7       -1.50       0.786           1.4         0.3 setosa 
#>  8       -1.02       0.786           1.5         0.2 setosa 
#>  9       -1.74      -0.361           1.4         0.2 setosa 
#> 10       -1.14       0.0979          1.5         0.1 setosa 
#> # … with 140 more rows

1.3.2 用type選變數

變數的type有nominal和 numeric，所以，我可以這樣做：

1.3.2.1 all_numeric()

recipe(Species ~ ., data = iris) %>%
  step_normalize(all_numeric()) %>%
  prep() %>%
  juice()
#> # A tibble: 150 × 5
#>    Sepal.Length Sepal.Width Petal.Length Petal.Width Species
#>           <dbl>       <dbl>        <dbl>       <dbl> <fct>  
#>  1       -0.898      1.02          -1.34       -1.31 setosa 
#>  2       -1.14      -0.132         -1.34       -1.31 setosa 
#>  3       -1.38       0.327         -1.39       -1.31 setosa 
#>  4       -1.50       0.0979        -1.28       -1.31 setosa 
#>  5       -1.02       1.25          -1.34       -1.31 setosa 
#>  6       -0.535      1.93          -1.17       -1.05 setosa 
#>  7       -1.50       0.786         -1.34       -1.18 setosa 
#>  8       -1.02       0.786         -1.28       -1.31 setosa 
#>  9       -1.74      -0.361         -1.34       -1.31 setosa 
#> 10       -1.14       0.0979        -1.28       -1.44 setosa 
#> # … with 140 more rows

1.3.2.2 all_nominal()

recipe(Species ~ ., data = iris) %>%
  step_dummy(all_nominal()) %>%
  prep() %>%
  juice()
#> # A tibble: 150 × 6
#>    Sepal.Length Sepal.Width Petal.Length Petal.Width
#>           <dbl>       <dbl>        <dbl>       <dbl>
#>  1          5.1         3.5          1.4         0.2
#>  2          4.9         3            1.4         0.2
#>  3          4.7         3.2          1.3         0.2
#>  4          4.6         3.1          1.5         0.2
#>  5          5           3.6          1.4         0.2
#>  6          5.4         3.9          1.7         0.4
#>  7          4.6         3.4          1.4         0.3
#>  8          5           3.4          1.5         0.2
#>  9          4.4         2.9          1.4         0.2
#> 10          4.9         3.1          1.5         0.1
#> # … with 140 more rows, and 2 more variables:
#> #   Species_versicolor <dbl>, Species_virginica <dbl>

1.3.3 用role選變數

1.3.3.1 all_predictors()

recipe(Species ~ ., data = iris) %>%
  step_normalize(all_predictors()) %>%
  prep() %>%
  juice()
#> # A tibble: 150 × 5
#>    Sepal.Length Sepal.Width Petal.Length Petal.Width Species
#>           <dbl>       <dbl>        <dbl>       <dbl> <fct>  
#>  1       -0.898      1.02          -1.34       -1.31 setosa 
#>  2       -1.14      -0.132         -1.34       -1.31 setosa 
#>  3       -1.38       0.327         -1.39       -1.31 setosa 
#>  4       -1.50       0.0979        -1.28       -1.31 setosa 
#>  5       -1.02       1.25          -1.34       -1.31 setosa 
#>  6       -0.535      1.93          -1.17       -1.05 setosa 
#>  7       -1.50       0.786         -1.34       -1.18 setosa 
#>  8       -1.02       0.786         -1.28       -1.31 setosa 
#>  9       -1.74      -0.361         -1.34       -1.31 setosa 
#> 10       -1.14       0.0979        -1.28       -1.44 setosa 
#> # … with 140 more rows

1.3.3.2 all_outcomes()

recipe(Species ~ ., data = iris) %>%
  step_dummy(all_outcomes()) %>%
  prep() %>%
  juice()
#> # A tibble: 150 × 6
#>    Sepal.Length Sepal.Width Petal.Length Petal.Width
#>           <dbl>       <dbl>        <dbl>       <dbl>
#>  1          5.1         3.5          1.4         0.2
#>  2          4.9         3            1.4         0.2
#>  3          4.7         3.2          1.3         0.2
#>  4          4.6         3.1          1.5         0.2
#>  5          5           3.6          1.4         0.2
#>  6          5.4         3.9          1.7         0.4
#>  7          4.6         3.4          1.4         0.3
#>  8          5           3.4          1.5         0.2
#>  9          4.4         2.9          1.4         0.2
#> 10          4.9         3.1          1.5         0.1
#> # … with 140 more rows, and 2 more variables:
#> #   Species_versicolor <dbl>, Species_virginica <dbl>

1.3.3.3 has_role()

recipe(Species ~ ., 
       data = iris %>% mutate(money = rnorm(n = 150, mean = 100000, sd = 1000))) %>%
  update_role(money, new_role = "whatever") %>%
  step_log(has_role("whatever")) %>%
  prep() %>%
  juice()
#> # A tibble: 150 × 6
#>    Sepal.Length Sepal.Width Petal.Length Petal.Width money
#>           <dbl>       <dbl>        <dbl>       <dbl> <dbl>
#>  1          5.1         3.5          1.4         0.2  11.5
#>  2          4.9         3            1.4         0.2  11.5
#>  3          4.7         3.2          1.3         0.2  11.5
#>  4          4.6         3.1          1.5         0.2  11.5
#>  5          5           3.6          1.4         0.2  11.5
#>  6          5.4         3.9          1.7         0.4  11.5
#>  7          4.6         3.4          1.4         0.3  11.5
#>  8          5           3.4          1.5         0.2  11.5
#>  9          4.4         2.9          1.4         0.2  11.5
#> 10          4.9         3.1          1.5         0.1  11.5
#> # … with 140 more rows, and 1 more variable: Species <fct>

1.3.4 全部參雜在一起選變數

例如我可以選全部的 “type = numeric” but “role != outcome”的變數，做log處理

recipe(money ~ ., data = iris %>% mutate(money = rnorm(150, 100000, 1000))) %>%
  step_normalize(all_numeric(), -all_outcomes()) %>%
  prep() %>%
  juice()
#> # A tibble: 150 × 6
#>    Sepal.Length Sepal.Width Petal.Length Petal.Width Species
#>           <dbl>       <dbl>        <dbl>       <dbl> <fct>  
#>  1       -0.898      1.02          -1.34       -1.31 setosa 
#>  2       -1.14      -0.132         -1.34       -1.31 setosa 
#>  3       -1.38       0.327         -1.39       -1.31 setosa 
#>  4       -1.50       0.0979        -1.28       -1.31 setosa 
#>  5       -1.02       1.25          -1.34       -1.31 setosa 
#>  6       -0.535      1.93          -1.17       -1.05 setosa 
#>  7       -1.50       0.786         -1.34       -1.18 setosa 
#>  8       -1.02       0.786         -1.28       -1.31 setosa 
#>  9       -1.74      -0.361         -1.34       -1.31 setosa 
#> 10       -1.14       0.0979        -1.28       -1.44 setosa 
#> # … with 140 more rows, and 1 more variable: money <dbl>
…
這邊的技巧在於，用 starts_with("Species")，就可以把Species轉成dummy後的變數全抓出來，然後一一和Sepal.Length做交互作用

那如果你很暴力，想把類別變數全轉成dummy，然後所有解釋變數都做交互作用，你可以這樣做：

iris_int_all <- 
  recipe( ~ ., data = iris) %>% 
  step_dummy(all_nominal()) %>% # 先轉 dummy
  step_interact(~all_predictors():all_predictors()) %>%
  prep(training = iris)
summary(iris_int_all)
#> # A tibble: 21 × 4
#>    variable                          type    role    source 
#>    <chr>                             <chr>   <chr>   <chr>  
#>  1 Sepal.Length                      numeric predic… origin…
#>  2 Sepal.Width                       numeric predic… origin…
#>  3 Petal.Length                      numeric predic… origin…
#>  4 Petal.Width                       numeric predic… origin…
#>  5 Species_versicolor                numeric predic… derived
#>  6 Species_virginica                 numeric predic… derived
#>  7 Sepal.Length_x_Sepal.Width        numeric predic… derived
#>  8 Sepal.Length_x_Petal.Length       numeric predic… derived
#>  9 Sepal.Length_x_Petal.Width        numeric predic… derived
#> 10 Sepal.Length_x_Species_versicolor numeric predic… derived
#> # … with 11 more rows
…
